module go-exp

go 1.17

require (
	bitbucket.org/teampaysolut/glog_lib v1.0.2
	bitbucket.org/teampaysolut/gutils_lib v0.1.49
	github.com/gin-gonic/gin v1.7.4
	github.com/jackc/pgx/v4 v4.15.0
	github.com/jmoiron/sqlx v1.3.4
	github.com/joho/godotenv v1.4.0
	github.com/pkg/errors v0.9.1
	github.com/prometheus/client_golang v1.12.1
	github.com/segmentio/kafka-go v0.4.9
	github.com/sirupsen/logrus v1.7.0
)

require (
	github.com/beorn7/perks v1.0.1 // indirect
	github.com/cespare/xxhash/v2 v2.1.2 // indirect
	github.com/gin-contrib/sse v0.1.0 // indirect
	github.com/go-playground/locales v0.13.0 // indirect
	github.com/go-playground/universal-translator v0.17.0 // indirect
	github.com/go-playground/validator/v10 v10.4.1 // indirect
	github.com/gofrs/flock v0.8.0 // indirect
	github.com/golang/protobuf v1.5.2 // indirect
	github.com/golang/snappy v0.0.3 // indirect
	github.com/google/uuid v1.3.0 // indirect
	github.com/jackc/chunkreader/v2 v2.0.1 // indirect
	github.com/jackc/pgconn v1.11.0 // indirect
	github.com/jackc/pgio v1.0.0 // indirect
	github.com/jackc/pgpassfile v1.0.0 // indirect
	github.com/jackc/pgproto3/v2 v2.2.0 // indirect
	github.com/jackc/pgservicefile v0.0.0-20200714003250-2b9c44734f2b // indirect
	github.com/jackc/pgtype v1.10.0 // indirect
	github.com/json-iterator/go v1.1.12 // indirect
	github.com/klauspost/compress v1.9.8 // indirect
	github.com/leodido/go-urn v1.2.0 // indirect
	github.com/mattn/go-isatty v0.0.12 // indirect
	github.com/matttproud/golang_protobuf_extensions v1.0.1 // indirect
	github.com/modern-go/concurrent v0.0.0-20180306012644-bacd9c7ef1dd // indirect
	github.com/modern-go/reflect2 v1.0.2 // indirect
	github.com/pierrec/lz4 v2.0.5+incompatible // indirect
	github.com/prometheus/client_model v0.2.0 // indirect
	github.com/prometheus/common v0.32.1 // indirect
	github.com/prometheus/procfs v0.7.3 // indirect
	github.com/slok/go-http-metrics v0.9.0 // indirect
	github.com/ugorji/go/codec v1.1.7 // indirect
	github.com/xdg/scram v0.0.0-20180814205039-7eeb5667e42c // indirect
	github.com/xdg/stringprep v1.0.0 // indirect
	golang.org/x/crypto v0.0.0-20210711020723-a769d52b0f97 // indirect
	golang.org/x/sys v0.0.0-20220114195835-da31bd327af9 // indirect
	golang.org/x/text v0.3.6 // indirect
	google.golang.org/protobuf v1.27.1 // indirect
	gopkg.in/yaml.v2 v2.4.0 // indirect
)
